<?xml version="1.0" encoding="utf-8"?>
<!-- Generator: Adobe Illustrator 23.0.3, SVG Export Plug-In . SVG Version: 6.00 Build 0)  -->
<svg version="1.1" id="Layer_1" xmlns="http://www.w3.org/2000/svg" xmlns:xlink="http://www.w3.org/1999/xlink" x="0px" y="0px"
	 viewBox="0 0 49.8 49.8" style="enable-background:new 0 0 49.8 49.8;" xml:space="preserve">
<style type="text/css">
	.st0{fill:#666666;}
</style>
<g>
	<path class="st0" d="M13.2,20.9c-2.2,0-4,1.8-4,4s1.8,4,4,4s4-1.8,4-4S15.3,20.9,13.2,20.9z"/>
	<path class="st0" d="M36.6,20.9c-2.2,0-4,1.8-4,4s1.8,4,4,4c2.2,0,4-1.8,4-4S38.8,20.9,36.6,20.9z"/>
	<path class="st0" d="M24.9,20.9c-2.2,0-4,1.8-4,4s1.8,4,4,4s4-1.8,4-4S27.1,20.9,24.9,20.9z"/>
</g>
</svg>
