<?xml version="1.0" encoding="utf-8"?>
<!-- Generator: Adobe Illustrator 23.0.3, SVG Export Plug-In . SVG Version: 6.00 Build 0)  -->
<svg version="1.1" id="Layer_1" xmlns="http://www.w3.org/2000/svg" xmlns:xlink="http://www.w3.org/1999/xlink" x="0px" y="0px"
	 viewBox="0 0 49.8 49.8" style="enable-background:new 0 0 49.8 49.8;" xml:space="preserve">
<style type="text/css">
	.st0{fill:#545454;}
</style>
<g>
	<path class="st0" d="M43.7,20.7c0.6-1.1,1.1-2.3,1.1-3.7c0-3.6-2.6-6.4-5.9-6.4s-5.9,2.8-5.9,6.4c0,1.4,0.4,2.7,1.1,3.7
		c-1,0.3-1.8,0.9-2.5,1.6c0.1-0.5,0.1-1,0.1-1.5c0-4.3-3-7.7-6.9-7.7s-6.9,3.4-6.9,7.7c0,0.5,0,1,0.1,1.5c-0.6-0.8-1.5-1.3-2.5-1.6
		c0.6-1.1,1.1-2.3,1.1-3.7c0-3.6-2.6-6.4-5.9-6.4S4.6,13.4,4.6,17c0,1.4,0.4,2.7,1.1,3.7c-2.4,0.9-4.2,3.1-4.2,5.8v4.3
		c0,0.8,0.2,1.3,1,1.3s1.1-0.5,1.1-1.3v-4.3c0-2.1,1.9-3.6,4-3.6h0.5l0,0c0.8,0.3,1.5,0.5,2.3,0.5c0.8,0,1.6-0.2,2.3-0.5l0,0h0.5
		c2.1,0,4,1.5,4,3.6v0.1c-1.8,1.3-3.6,3.6-3.6,6.1v5.4c0,0.8,0.2,1.3,1,1.3s1.1-0.5,1.1-1.3v-5.4c0-2.6,2.7-4.9,5.3-4.9h0.3
		c0.9,0.4,1.9,0.8,3,0.8s2.1-0.3,3-0.8h1c2.6,0,5.3,2.3,5.3,4.9v5.4c0,0.8,0.3,1.3,1.1,1.3s1-0.5,1-1.3v-5.4c0-2.5-1.6-4.7-3.6-6.1
		v-0.1c0-2.1,1.9-3.6,4-3.6h0.5l0,0c0.8,0.3,1.5,0.5,2.3,0.5c0.8,0,1.6-0.2,2.3-0.5l0,0h0.5c2.1,0,4,1.5,4,3.6v4.3
		c0,0.8,0.3,1.3,1.1,1.3s1-0.5,1-1.3v-4.3C48,23.8,46.2,21.4,43.7,20.7z M6.8,17c0-2.5,1.8-4.7,4.1-4.7S15,14.5,15,17
		s-1.8,4.7-4.1,4.7S6.8,19.5,6.8,17z M20.1,20.8c0-3.1,2.3-5.7,4.9-5.7s4.9,2.6,4.9,5.7s-2.1,5.7-4.9,5.7S20.1,23.9,20.1,20.8z
		 M35,17c0-2.5,1.8-4.7,4.1-4.7c2.3,0,4.1,2.2,4.1,4.7s-1.8,4.7-4.1,4.7C36.8,21.6,35,19.5,35,17z"/>
</g>
</svg>
