<?xml version="1.0" encoding="utf-8"?>
<!-- Generator: Adobe Illustrator 23.0.3, SVG Export Plug-In . SVG Version: 6.00 Build 0)  -->
<svg version="1.1" id="Layer_1" xmlns="http://www.w3.org/2000/svg" xmlns:xlink="http://www.w3.org/1999/xlink" x="0px" y="0px"
	 viewBox="0 0 49.8 49.8" style="enable-background:new 0 0 49.8 49.8;" xml:space="preserve">
<style type="text/css">
	.st0{fill:#2281C4;}
</style>
<g>
	<g>
		<path class="st0" d="M38.6,24.5c-0.7,0-1.2,0.5-1.2,1.2v16.1H29v-6.6c0-0.6-0.5-1.2-1.1-1.2h-6c-0.7,0-1.2,0.5-1.2,1.2v6.6h-8.3
			V26.3c0-0.6-0.5-1.1-1.2-1.1c-0.6,0-1.1,0.5-1.1,1.1V43c0,0.6,0.5,1.1,1.1,1.1h10.7c0.6,0,1.1-0.5,1.1-1.1v-6.6h3.7V43
			c0,0.6,0.5,1.1,1.2,1.1h10.7c0.6,0,1.1-0.5,1.1-1.1V25.7C39.8,25,39.2,24.5,38.6,24.5z"/>
		<path class="st0" d="M45,25.5l-9.3-9.3V9.7c0-0.7-0.5-1.2-1.2-1.2c-0.6,0-1.1,0.5-1.1,1.2v4L25.7,6c-0.2-0.2-0.5-0.4-0.8-0.4
			S24.3,5.7,24.1,6L4.8,25.3c-0.5,0.5-0.5,1.2,0,1.6c0.4,0.5,1.2,0.5,1.6,0L24.9,8.5l18.4,18.6c0.2,0.2,0.5,0.3,0.8,0.3
			s0.6-0.1,0.8-0.3C45.5,26.7,45.5,25.9,45,25.5z"/>
	</g>
</g>
</svg>
