<?xml version="1.0" encoding="utf-8"?>
<!-- Generator: Adobe Illustrator 23.0.3, SVG Export Plug-In . SVG Version: 6.00 Build 0)  -->
<svg version="1.1" id="Layer_1" xmlns="http://www.w3.org/2000/svg" xmlns:xlink="http://www.w3.org/1999/xlink" x="0px" y="0px"
	 viewBox="0 0 49.8 49.8" style="enable-background:new 0 0 49.8 49.8;" xml:space="preserve">
<style type="text/css">
	.st0{fill:#FFFFFF;}
</style>
<g>
	<path class="st0" d="M25.5,16.1h-8.8v8.8h8.8V16.1z M24.3,23.6H18v-6.3h6.3V23.6z"/>
	<path class="st0" d="M38.7,16.1h-10c-0.3,0-0.6,0.3-0.6,0.6c0,0.3,0.3,0.6,0.6,0.6h10c0.3,0,0.6-0.3,0.6-0.6S39,16.1,38.7,16.1z"/>
	<path class="st0" d="M38.7,19.9h-10c-0.3,0-0.6,0.3-0.6,0.6s0.3,0.6,0.6,0.6h10c0.3,0,0.6-0.3,0.6-0.6S39,19.9,38.7,19.9z"/>
	<path class="st0" d="M38.7,23.6h-10c-0.3,0-0.6,0.3-0.6,0.6c0,0.3,0.3,0.6,0.6,0.6h10c0.3,0,0.6-0.3,0.6-0.6S39,23.6,38.7,23.6z"/>
	<path class="st0" d="M38.7,27.4H18c-0.3,0-0.6,0.3-0.6,0.6s0.3,0.6,0.6,0.6h20.7c0.3,0,0.6-0.3,0.6-0.6S39,27.4,38.7,27.4z"/>
	<path class="st0" d="M27.4,31.2H18c-0.3,0-0.6,0.3-0.6,0.6s0.3,0.6,0.6,0.6h9.4c0.3,0,0.6-0.3,0.6-0.6S27.8,31.2,27.4,31.2z"/>
	<path class="st0" d="M27.4,34.9H18c-0.3,0-0.6,0.3-0.6,0.6s0.3,0.6,0.6,0.6h9.4c0.3,0,0.6-0.3,0.6-0.6S27.8,34.9,27.4,34.9z"/>
	<path class="st0" d="M27.4,38.7H18c-0.3,0-0.6,0.3-0.6,0.6s0.3,0.6,0.6,0.6h9.4c0.3,0,0.6-0.3,0.6-0.6S27.8,38.7,27.4,38.7z"/>
	<path class="st0" d="M30.5,39.9h8.8v-8.8h-8.8V39.9z M31.8,32.4h6.3v6.3h-6.3V32.4z"/>
	<path class="st0" d="M43.1,14.2L43.1,14.2V6H13v18.8H6.7v15c0,2.1,1.7,3.8,3.8,3.8h28.8c2.1,0,3.8-1.7,3.8-3.8V14.2
		C43.1,14.3,43.1,14.3,43.1,14.2z M41.8,7.3v6.3H14.2V7.3H41.8z M8,39.9V26.2h5V40c0,1.4-1.1,2.5-2.5,2.5S8,41.3,8,39.9z M39.3,42.5
		h-26l0,0c0.1-0.1,0.2-0.3,0.3-0.5v-0.1c0.1-0.2,0.2-0.3,0.3-0.5v-0.1c0.1-0.2,0.1-0.4,0.2-0.6c0,0,0,0,0-0.1c0-0.2,0.1-0.4,0.1-0.7
		v-15v-10h27.6V40C41.8,41.3,40.7,42.5,39.3,42.5z"/>
	<path class="st0" d="M35.6,8.6h-15v3.8h15V8.6z M34.3,11.1H21.8V9.9h12.5V11.1z"/>
</g>
</svg>
