<svg width="114" height="114" viewBox="0 0 114 114" fill="none" xmlns="http://www.w3.org/2000/svg">
<g opacity="0.8">
<path d="M78.1 46.4C78.1 28.9 63.9 14.7 46.5 14.7C29 14.8 14.8 29 14.8 46.4C14.8 63.8 29 78.1 46.5 78.1C63.9 78.1 78.1 63.9 78.1 46.4ZM46.5 70.2C33.4 70.2 22.8 59.6 22.8 46.5C22.8 33.4 33.4 22.8 46.5 22.8C59.6 22.8 70.2 33.4 70.2 46.5C70.2 59.6 59.5 70.2 46.5 70.2Z" fill="#454545"/>
<path d="M96.9 85.7L77.5 66.3C74.6 70.8 70.8 74.6 66.3 77.5L85.7 96.9C88.8 100 93.8 100 96.9 96.9C100 93.8 100 88.8 96.9 85.7Z" fill="#454545"/>
</g>
</svg>
