<svg width="100" height="100" viewBox="0 0 100 100" fill="none" xmlns="http://www.w3.org/2000/svg">
<path d="M0.0475446 7.14307L0 40.4763L71.4286 50.0002L0 59.5241L0.0475446 92.8573L100 50.0002L0.0475446 7.14307Z" fill="#00A3E8" fill-opacity="0.4"/>
</svg>
