<svg width="50" height="50" viewBox="0 0 50 50" fill="none" xmlns="http://www.w3.org/2000/svg">
<path d="M14.4318 31.1603C15.4545 29.8352 16.7211 28.7079 18.1642 27.8461C18.7638 27.4879 19.3938 27.1752 20.0495 26.9137C20.6933 26.6569 21.3619 26.4494 22.0503 26.2951C20.4027 24.7758 18.2428 23.9219 15.9723 23.9219C11.0249 23.9219 7 27.9468 7 32.8941C7 33.8516 7.77631 34.6279 8.73382 34.6279H12.5021C12.726 34.0284 12.9917 33.4493 13.2963 32.8941C13.63 32.2856 14.0103 31.7063 14.4318 31.1603Z" fill="#9CDD05"/>
<path d="M42.9181 32.8941C42.9181 27.9469 38.8933 23.9219 33.9459 23.9219C31.6754 23.9219 29.5155 24.7758 27.8679 26.2951C28.5563 26.4495 29.2248 26.6569 29.8687 26.9137C30.5244 27.1753 31.1542 27.4879 31.7539 27.8461C33.1969 28.7079 34.4635 29.8353 35.4862 31.1603C35.9076 31.7064 36.2881 32.2857 36.6218 32.8941C36.9264 33.4493 37.1921 34.0283 37.416 34.6279H41.1844C42.1418 34.6279 42.9181 33.8516 42.9181 32.8941Z" fill="#C2FB3B"/>
<path d="M19.046 19.4456C18.7078 18.9701 18.4258 18.4525 18.209 17.902C17.8857 17.0808 17.7059 16.1878 17.7059 15.2532C17.7059 14.3185 17.8856 13.4255 18.209 12.6043C18.4259 12.0537 18.7078 11.536 19.046 11.0607C18.1843 10.4271 17.1215 10.0518 15.9721 10.0518C13.104 10.0518 10.7707 12.3851 10.7707 15.2533C10.7707 18.1213 13.104 20.4546 15.9721 20.4546C17.1213 20.4544 18.1842 20.0791 19.046 19.4456Z" fill="#EFC27B"/>
<path d="M32.2121 15.2528C32.2121 16.1874 32.0324 17.0804 31.709 17.9016C31.4922 18.4522 31.2102 18.9698 30.872 19.4453C31.7338 20.0788 32.7966 20.4541 33.9459 20.4541C36.8141 20.4541 39.1473 18.1208 39.1473 15.2528C39.1473 12.3846 36.814 10.0513 33.9459 10.0513C32.7966 10.0513 31.7337 10.4267 30.872 11.0602C31.2102 11.5357 31.4921 12.0534 31.709 12.6038C32.0324 13.4251 32.2121 14.3182 32.2121 15.2528Z" fill="#EFC27B"/>
<path d="M17.7059 15.253C17.7059 16.1877 17.8856 17.0806 18.209 17.9018C18.4258 18.4524 18.7078 18.97 19.046 19.4455C20.3617 21.2957 22.5209 22.5061 24.959 22.5061C27.3972 22.5061 29.5564 21.2957 30.8719 19.4455C31.2101 18.97 31.4921 18.4523 31.709 17.9018C32.0322 17.0807 32.212 16.1877 32.212 15.253C32.212 14.3184 32.0323 13.4253 31.709 12.6042C31.4921 12.0536 31.2101 11.5359 30.872 11.0605C29.5564 9.21041 27.3971 8 24.9591 8C22.5212 8 20.3619 9.21041 19.0462 11.0605C18.708 11.536 18.426 12.0537 18.2092 12.6042C17.8856 13.4253 17.7059 14.3184 17.7059 15.253Z" fill="#EFC27B"/>
<path d="M35.4863 31.1602C34.4636 29.8351 33.197 28.7078 31.7539 27.846C31.1543 27.4878 30.5243 27.1753 29.8687 26.9137C29.225 26.6568 28.5564 26.4493 27.8679 26.2951C26.9314 26.0852 25.9581 25.9736 24.959 25.9736C23.96 25.9736 22.9869 26.0852 22.0501 26.2951C21.3618 26.4494 20.6932 26.6568 20.0493 26.9137C19.3936 27.1753 18.7638 27.4879 18.164 27.846C16.721 28.7078 15.4544 29.8351 14.4316 31.1602C14.0102 31.7063 13.6298 32.2856 13.2961 32.894C12.9915 33.4492 12.7257 34.0283 12.5019 34.6279C11.9621 36.0726 11.6663 37.6353 11.6663 39.266C11.6663 40.2235 12.4426 40.9998 13.4001 40.9998H36.5176C37.4751 40.9998 38.2514 40.2235 38.2514 39.266C38.2514 37.6353 37.9556 36.0727 37.4159 34.6279C37.192 34.0283 36.9264 33.4492 36.6218 32.894C36.2881 32.2855 35.9078 31.7062 35.4863 31.1602Z" fill="#A4E276"/>
<path d="M19.046 11.0605C18.7078 11.536 18.4259 12.0537 18.209 12.6042C17.8856 13.4253 17.7059 14.3184 17.7059 15.2531C17.7059 16.1877 17.8856 17.0806 18.209 17.9019C18.4258 18.4525 18.7078 18.97 19.046 19.4455C20.3617 21.2957 22.5209 22.5062 24.959 22.5062V8C24.959 8 24.959 8 24.9588 8C22.5209 8 20.3617 9.21048 19.046 11.0605Z" fill="#ECB45C"/>
<path d="M24.959 25.9736C23.96 25.9736 22.9869 26.0852 22.0501 26.2951C21.3618 26.4494 20.6932 26.6568 20.0493 26.9137C19.3936 27.1753 18.7638 27.4879 18.1641 27.846C16.7211 28.7078 15.4545 29.8351 14.4318 31.1602C14.0104 31.7063 13.6299 32.2856 13.2962 32.894C12.9916 33.4492 12.7259 34.0283 12.502 34.6279C11.9622 36.0727 11.6664 37.6353 11.6664 39.266C11.6664 40.2235 12.4427 40.9998 13.4002 40.9998H24.9589V25.9736C24.9591 25.9736 24.959 25.9736 24.959 25.9736Z" fill="#64C37D"/>
<path d="M10.7707 15.2528C10.7707 18.1209 13.104 20.4541 15.9721 20.4541V10.0513C13.104 10.0513 10.7707 12.3846 10.7707 15.2528Z" fill="#ECB45C"/>
<path d="M30.872 11.0603C31.2103 11.5358 31.4922 12.0535 31.709 12.604C32.0324 13.4251 32.2121 14.3181 32.2121 15.2529C32.2121 16.1875 32.0324 17.0804 31.709 17.9017C31.4922 18.4522 31.2102 18.9698 30.872 19.4453C31.6926 20.0486 32.6959 20.4169 33.7823 20.4508V10.0547C32.6959 10.0886 31.6927 10.4569 30.872 11.0603Z" fill="#ECB45C"/>
</svg>
